{
   "abstract" : "Command line tool for L<GitDDL>",
   "author" : [
      "Naoki OKAMURA (Nyarla)."
   ],
   "dynamic_config" : 0,
   "generated_by" : "Minilla/v2.1.1, CPAN::Meta::Converter version 2.140640",
   "license" : [
      "perl_5"
   ],
   "meta-spec" : {
      "url" : "http://search.cpan.org/perldoc?CPAN::Meta::Spec",
      "version" : "2"
   },
   "name" : "App-gitddl",
   "no_index" : {
      "directory" : [
         "t",
         "xt",
         "inc",
         "share",
         "eg",
         "examples",
         "author",
         "builder"
      ]
   },
   "prereqs" : {
      "configure" : {
         "requires" : {
            "Module::Build::Tiny" : "0.035"
         }
      },
      "develop" : {
         "requires" : {
            "Test::CPAN::Meta" : "0",
            "Test::MinimumVersion::Fast" : "0.04",
            "Test::PAUSE::Permissions" : "0.04",
            "Test::Pod" : "1.41",
            "Test::Spellunker" : "v0.2.7"
         }
      },
      "runtime" : {
         "requires" : {
            "Cwd" : "0",
            "GitDDL" : "0",
            "IO::Prompt::Simple" : "0",
            "JSON" : "0"
         }
      },
      "test" : {
         "requires" : {
            "Test::More" : "0.98"
         }
      }
   },
   "release_status" : "unstable",
   "resources" : {
      "bugtracker" : {
         "web" : "https://github.com/nyarla/p5-App-gitddl/issues"
      },
      "homepage" : "https://github.com/nyarla/p5-App-gitddl",
      "repository" : {
         "type" : "git",
         "url" : "git://github.com/nyarla/p5-App-gitddl.git",
         "web" : "https://github.com/nyarla/p5-App-gitddl"
      }
   },
   "version" : "0.0.1",
   "x_contributors" : [
      "nyarla <nyarla@thotep.net>"
   ]
}
